[
    {
        "week": 1,
        "date": "Jan 16",
        "topics": [
            "The Internet and its Architecture",
            "History of the Internet and World Wide Web",
            "World Wide Web Consortium (W3C)",
            "Personal, Distributed and Client/Server Computing",
            "Browser Portability"
        ],
        "readings": [
            {
                "name": "How does the Internet work?",
                "link": "https://developer.mozilla.org/en-US/docs/Learn/Common_questions/How_does_the_Internet_work"
            },
            {
                "name": "How the Web works",
                "link": "https://developer.mozilla.org/en-US/docs/Learn/Getting_started_with_the_web/How_the_Web_works"
            },
            {
                "name": "How the Internet Works in 5 Minutes [Video]",
                "link": "https://www.youtube.com/watch?v=7_LPdttKXPc"
            },
            {
                "name": "HTTP/1.1: Status Code Definitions",
                "link": "https://www.w3.org/Protocols/rfc2616/rfc2616-sec10.html"
            }
        ],
        "slides": [
            {
                "title": "Week 1 slide",
                "link": "/slides/Week-1-InternetWebHtml.pdf"
            }
        ],
        "code": [],
        "assignments": [],
        "labs": []
    },
    {
        "week": 2,
        "date": "Jan 23",
        "topics": [
            "Introduction to HTML5",
            "Headings, Linking, Images, Special Characters and Horizontal Rules",
            "Lists, Tables",
            "Forms, Internal Linking, meta Elements"
        ],
        "readings": [
            {
                "name": "Introduction to HTML - Learn web development | MDN",
                "link": "https://developer.mozilla.org/en-US/docs/Learn/HTML/Introduction_to_HTML"
            },
            {
                "name": "HTML Tutorial - W3Schools",
                "link": "https://www.w3schools.com/html/default.asp"
            },
            {
                "name":"HTML Elements Reference",
                "link": "https://developer.mozilla.org/en-US/docs/Web/HTML/Element"
            },
            {
                "name": "Empty/Void HTML Elements",
                "link": "https://developer.mozilla.org/en-US/docs/Glossary/Empty_element"
            }
        ],
        "slides": [],
        "code": [
            {
                "title": "HTML Table",
                "link": "https://jsfiddle.net/kalharbi/scgjyadh/"
            },
            {
                "title": "Internal bookmark links",
                "link": "https://jsfiddle.net/kalharbi/mobsd2yr/"
            },
            {
              "title": "HTML Form Elements",
              "link": "https://jsfiddle.net/kalharbi/x9zub1wn/"
            }
        ],
        "assignments": [],
        "labs": [
            1
        ]
    },
    {
        "week": 3,
        "note": "Long weekend",
        "date": "Jan 30",
        "topics": [
            "Cascading Style Sheets",
            "Inline Styles, Embedded Style Sheets, Conflicting Styles",
            "Linking External Style Sheets",
            "Positioning elements, backgrounds, and element dimensions",
            "CSS Box Model"
        ],
        "readings": [
            {
                "name": "Learn to style HTML using CSS - Learn web development | MDN",
                "link": "https://developer.mozilla.org/en-US/docs/Learn/CSS"
            },
            {
                "name": "The box model",
                "link": "https://developer.mozilla.org/en-US/docs/Learn/CSS/Introduction_to_CSS/Box_model"
            },
            {
                "name": "CSS Tutorial - W3Schools",
                "link": "https://www.w3schools.com/css/default.asp"
            }
        ],
        "slides": [],
        "code": [
            {
                "title": "To do app demo",
                "link": "https://cpit405.gitlab.io/css-example/"
            },
            {
                "title": "To do app source code",
                "link": "https://gitlab.com/cpit405/css-example/tree/master/public"
            }
        ],
        "assignments": [
        ],
        "labs": [
            2
        ],
        "event":
            {
                "description": "Long weekend - No classes on Wednesday 02/02/2022 and Thursday 03/02/2022"
            }
    },
    {
        "week": 4,
        "date": "Feb 6",
        "topics": [
            "JavaScript: Part 1 (Introduction, Control Statements & Functions)",
            "Formulating Algorithms: Nested Control Statements, Assignment Operators, Increment and Decrement Operators",
            "Essentials of Counter-Controlled Repetition, for Repetition Statement, Examples Using the for Statement, switch Multiple-Selection Statement, do…while Repetition Statement,  break and continue Statements, Labeled break and continue Statements",
            "Logical Operators",
            "Program Modules in JavaScript",
            "Programmer-Defined Functions, Function Definitions, Random Number Generation, Example: Game of Chance, Another Example: Random Image Generator, Scope Rules, JavaScript Global Functions",
            "Recursion vs. Iteration"
        ],
        "readings": [
            {
                "name": "JavaScript - Learn web development | MDN",
                "link": "https://developer.mozilla.org/en-US/docs/Learn/JavaScript"
            },
            {
                "name": "JavaScript Tutorial - W3Schools",
                "link": "https://www.w3schools.com/js/default.asp"
            }
        ],
        "slides": [],
        "code": [],
        "assignments": [],
        "labs": [
            3
        ]
    },
    {
        "week": 5,
        "date": "Feb 13",
        "topics": [
            "JavaScript: Part 1 (Introduction, Control Statements & Functions)",
            "Simple Program: Displaying a Line of Text in a Web Page, Modifying Our First Program",
            "Obtaining User Input with prompt Dialogs",
            "Dynamic Welcome Page, Adding Integers",
            "Memory Concepts, Arithmetic, Decision Making: Equality and Relational Operators",
            "Algorithms, Pseudocode, Control Structures, if Selection Statement, if…else Selection Statement, while Repetition Statement",
            "Formulating Algorithms: Counter-Controlled Repetition, Formulating Algorithms: Sentinel-Controlled Repetition"
        ],
        "readings": [
            {
                "name": "JavaScript - Learn web development | MDN",
                "link": "https://developer.mozilla.org/en-US/docs/Learn/JavaScript"
            },
            {
                "name": "JavaScript Tutorial - W3Schools",
                "link": "https://www.w3schools.com/js/default.asp"
            }
        ],
        "slides": [],
        "code": [],
        "assignments": [
        ],
        "labs": [
            4
        ]
    },
    {
        "week": 6,
        "note": "Long weekend",
        "date": "Feb 20",
        "topics": [
            "JavaScript: Part 1 (Introduction, Control Statements & Functions)"
        ],
        "readings": [
            {
                "name": "JavaScript - Learn web development | MDN",
                "link": "https://developer.mozilla.org/en-US/docs/Learn/JavaScript"
            },
            {
                "name": "JavaScript Tutorial - W3Schools",
                "link": "https://www.w3schools.com/js/default.asp"
            }
        ],
        "slides": [],
        "code": [],
        "assignments": [],
        "labs": [
            5
        ],
        "event":
        {
            "description": "Long weekend - No classes on Wednesday 23/03/2022 and Thursday 24/03/2022"
        }
    },
    {
        "week": 7,
        "date": "Feb 27",
        "topics": [
            "JavaScript: Part 2 (Arrays & Objects)",
            "Arrays, Declaring and Allocating Arrays, Examples Using Arrays",
            "Random Image Generator Using Arrays",
            "References and Reference Parameters",
            "Passing Arrays to Functions, Sorting Arrays, Searching Arrays: Linear Search and Binary Search",
            "Multidimensional Arrays",
            "Introduction to Object Technology",
            "Math Object",
            "String Object",
            "Fundamentals of Characters and Strings",
            "Methods of the String Object, Character-Processing Methods, Searching Methods, Splitting Strings and Obtaining Substrings",
            "Date Object, Boolean and Number Objects",
            "document Object, window Object",
            "Using Cookies",
            "Using JSON to Represent Objects"
        ],
        "readings": [
            {
                "name": "JavaScript - Learn web development | MDN",
                "link": "https://developer.mozilla.org/en-US/docs/Learn/JavaScript"
            },
            {
                "name": "JavaScript Tutorial - W3Schools",
                "link": "https://www.w3schools.com/js/default.asp"
            },
            {
                "name": "Working with objects | MDN",
                "link": "https://developer.mozilla.org/en-US/docs/Web/JavaScript/Guide/Working_with_Objects"
            },
            {
                "name": "Math and Date Objects | MDN",
                "link": "https://developer.mozilla.org/en-US/docs/Web/JavaScript/Reference/Global_Objects#Numbers_and_dates"
            },
            {
                "name": "Document.cookie",
                "link": "https://developer.mozilla.org/en-US/docs/Web/API/Document/cookie"
            }
        ],
        "slides": [],
        "code": [
            {
                "title": "Cookies Example",
                "link": "https://jsfiddle.net/kalharbi/4ss7ed1x/"
            }
        ],
        "assignments": [],
        "labs": [
            6
        ]
    },
    {
        "week": 8,
        "date": "March 6",
        "note": "Midterm exam [TBD]",
        "topics": [
            "Document Object Model (DOM)",
            "Modeling a Document: DOM Nodes and Trees",
            "Traversing and Modifying a DOM Tree",
            "DOM Collections, Dynamic Styles",
            "Summary of the DOM Objects and Collections"
        ],
        "readings": [
            {
                "name": "Introduction to the DOM | MDN",
                "link": "https://developer.mozilla.org/en-US/docs/Web/API/Document_Object_Model/Introduction"
            },
            {
                "name": "JavaScript HTML DOM",
                "link": "https://www.w3schools.com/js/js_htmldom.asp"
            }
        ],
        "slides": [],
        "code": [],
        "assignments": [],
        "labs": [
            7
        ],
        "event":
        {
            "description": "Midterm exams. Exam date: TBD"
        }
    },
    {
        "date": "March 13",
        "topics": [],
        "readings": [],
        "slides": [],
        "code": [],
        "assignments": [],
        "labs": [],
        "event": {
            "description": "second semester vacation week"
        }
    },
    {
        "week": 9,
        "date": "March 20",
        "topics": [
            "JavaScript: Part 3  (Events)",
            "Registering Event Handlers, Event on load, Event on mouse move",
            "the event Object and this",
            "Rollovers with on mouse over and on mouse out"
        ],
        "readings": [
            {
                "name": "Introduction to events | MDN",
                "link": "https://developer.mozilla.org/en-US/docs/Learn/JavaScript/Building_blocks/Events"
            },
            {
                "name": "JavaScript HTML DOM Events Examples",
                "link": "https://www.w3schools.com/js/js_events_examples.asp"
            },
            {
                "name": "GlobalEventHandlers",
                "link": "https://developer.mozilla.org/en-US/docs/Web/API/GlobalEventHandlers"
            }
        ],
        "slides": [],
        "code": [],
        "assignments": [],
        "labs": [
            8
        ]
    },
    {
        "week": 10,
        "date": "March 27",
        "topics": [
            "JavaScript: Part 3  (Events)",
            "Form Processing with on focus and on blur",
            "More Form Processing with on submit and on reset",
            "Event Bubbling"
        ],
        "readings": [
            {
                "name": "Event.bubbles | MDN",
                "link": "https://developer.mozilla.org/en-US/docs/Web/API/Event/bubbles"
            },
            {
                "name": "Event Bubbling | MDN",
                "link": "https://developer.mozilla.org/en-US/docs/Learn/JavaScript/Building_blocks/Events#Event_bubbling_and_capture"
            }
        ],
        "slides": [],
        "code": [
            {
                "title": "Event bubbling",
                "link": "https://jsfiddle.net/kalharbi/z9kstarg/"
            },
            {
                "title": "Stopping event bubbling",
                "link": "https://jsfiddle.net/kalharbi/z9kstarg/1"
            }
        ],
        "assignments": [],
        "labs": [
            9
        ]
    },
    {
        "week": 11,
        "date": "April 3",
        "topics": [
            "Asynchronous web applications with Ajax"
        ],
        "readings": [
            {
                "name": "",
                "link": ""
            },
            {
                "name": "",
                "link": ""
            }
        ],
        "slides": [
            {
                "title": "",
                "link": ""
            }
        ],
        "code": [],
        "assignments": [],
        "labs": [
            10
        ]
    },
    {
        "week": 12,
        "note": "midterm exam 2",
        "date": "April 10",
        "topics": [
            "JavaScript Object Notation (JSON)",
            "JSON: syntax and data types",
            "Creating and accessing JSON data in JavaScript",
            "Using JSON data in HTML pages "
        ],
        "readings": [
            {
                "name": "JSON - Introduction - W3Schools",
                "link": "https://www.w3schools.com/js/js_json_intro.asp"
            },
            {
                "name": "Working with JSON | MDN",
                "link": "https://developer.mozilla.org/en-US/docs/Learn/JavaScript/Objects/JSON"
            },
            {
                "name": "AJAX | MDN",
                "link": "https://developer.mozilla.org/en-US/docs/Web/Guide/AJAX"
            },
            {
                "name": "Using Fetch API | MDN",
                "link": "https://developer.mozilla.org/en-US/docs/Web/API/Fetch_API/Using_Fetch"
            }
        ],
        "slides": [
            {
                "title": "JSON/AJAX slides",
                "link": "/slides/JSON.pptx"
            }
        ],
        "code": [
            {
                "title": "AJAX example using the XMLHttpRequest object",
                "link": "https://jsfiddle.net/kalharbi/7fbam5rd/"
            }
        ],
        "assignments": [
        ],
        "labs": [
            11
        ]
    },
    {
        "week": 13,
        "date": "April 17",
        "topics": [
            "PHP and MySQL",
            "Data Types",
            "Arithmetic Operators",
            "Arrays",
            "String Manipulations",
            "Superglobal Arrays "
        ],
        "readings": [
            {
                "name": "PHP Tutorial - W3Schools",
                "link": "https://www.w3schools.com/php/default.asp"
            },
            {
                "name": "PHP Superglobals - Manual",
                "link": "https://secure.php.net/manual/en/language.variables.superglobals.php"
            },
            {
                "name": "Data Filtering | PHP Manual",
                "link": "https://secure.php.net/manual/en/book.filter.php"
            }
        ],
        "slides": [
            {
                "title": "PHP/MySQL slides",
                "link": "/slides/PHP-MySQL.pptx"
            }
        ],
        "code": [],
        "assignments": [],
        "labs": [
            12
        ]
    },
    {
        "week": 14,
        "date": "April 24",
        "note": "Eid al-Fitr holiday",
        "topics": [
            "PHP and MySQL",
            "Setting up web servers",
            "Setting up Database: MySQL, PHP Scripting Basics",
            "Creating a CRUD application"
        ],
        "readings": [
            {
                "name": "PHP MySQL Database Tutorial - W3Schools",
                "link": "https://www.w3schools.com/php/php_mysql_intro.asp"
            }
        ],
        "slides": [],
        "code": [
            {
                "title": "A simple ToDo app using PHP and MySQL",
                "link": "https://gitlab.com/kalharbi/todo-php-mysql"
            }
        ],
        "assignments": [],
        "event": {
            "description": "Eid al-Fitr holiday - No classes from Tuesday 26/04/2022 to Thursday 05/05/2022"
        }
    },
    {
        "week": 15,
        "date": "May 08",
        "topics": [
            "PHP and MySQL",
            "Setting up web servers",
            "Setting up Database: MySQL, PHP Scripting Basics",
            "Creating a CRUD application"
        ],
        "readings": [
            {
                "name": "PHP MySQL Database Tutorial - W3Schools",
                "link": "https://www.w3schools.com/php/php_mysql_intro.asp"
            }
        ],
        "slides": [],
        "code": [
            {
                "title": "A simple ToDo app using PHP and MySQL",
                "link": "https://gitlab.com/kalharbi/todo-php-mysql"
            }
        ],
        "assignments": []
    }
    ,
    {
        "week": 16,
        "date": "May 15",
        "topics": [
            "PHP and MySQL",
            "Setting up web servers",
            "Setting up Database: MySQL, PHP Scripting Basics",
            "Creating a CRUD application"
        ],
        "readings": [
            {
                "name": "PHP MySQL Database Tutorial - W3Schools",
                "link": "https://www.w3schools.com/php/php_mysql_intro.asp"
            }
        ],
        "slides": [],
        "code": [
            {
                "title": "A simple ToDo app using PHP and MySQL",
                "link": "https://gitlab.com/kalharbi/todo-php-mysql"
            }
        ],
        "assignments": []
    }
]
